<?xml version="1.0" standalone="no"?>
<!DOCTYPE svg PUBLIC "-//W3C//DTD SVG 20010904//EN"
 "http://www.w3.org/TR/2001/REC-SVG-20010904/DTD/svg10.dtd">
<svg version="1.0" xmlns="http://www.w3.org/2000/svg"
 width="500.000000pt" height="500.000000pt" viewBox="0 0 500.000000 500.000000"
 preserveAspectRatio="xMidYMid meet">
<metadata>
Created by potrace 1.11, written by Peter Selinger 2001-2013
</metadata>
<g transform="translate(0.000000,500.000000) scale(0.100000,-0.100000)"
fill="#000000" stroke="none">
<path d="M3000 4500 c0 -3 -15 -5 -33 -6 -17 0 -45 -3 -62 -7 -16 -3 -43 -9
-60 -12 -16 -3 -64 -17 -105 -31 -41 -13 -79 -25 -85 -26 -5 0 -55 -16 -109
-35 -55 -18 -107 -35 -115 -37 -9 -2 -23 -6 -31 -9 -42 -16 -256 -80 -267 -80
-7 0 -13 -4 -13 -9 0 -4 -8 -8 -18 -8 -9 0 -41 -9 -70 -19 -29 -11 -55 -20
-57 -20 -3 0 -64 -19 -136 -42 -72 -23 -137 -42 -145 -43 -7 -1 -17 -5 -20 -9
-4 -4 -13 -7 -20 -7 -7 0 -25 -5 -41 -12 -15 -6 -36 -13 -46 -15 -10 -2 -58
-16 -105 -32 -124 -42 -265 -84 -279 -84 -7 0 -13 -4 -13 -7 0 -4 -12 -10 -27
-13 -16 -3 -41 -11 -58 -18 -16 -7 -32 -13 -35 -14 -3 0 -15 -6 -27 -13 -13
-7 -23 -10 -23 -7 0 3 -6 1 -12 -5 -7 -6 -41 -28 -75 -50 -35 -22 -63 -45 -63
-51 0 -7 -3 -9 -7 -5 -8 7 -143 -130 -143 -146 0 -5 -5 -6 -12 -2 -6 4 -8 3
-5 -3 4 -6 -2 -21 -13 -33 -11 -12 -22 -31 -25 -41 -4 -11 -11 -19 -16 -19 -6
0 -8 -4 -4 -9 3 -5 -2 -16 -11 -25 -8 -9 -16 -25 -17 -36 -1 -11 -5 -20 -9
-20 -4 0 -8 -6 -8 -14 0 -8 -5 -27 -12 -43 -12 -30 -14 -36 -22 -70 -12 -48
-16 -70 -22 -121 -3 -29 -7 -62 -9 -72 -2 -11 0 -22 6 -25 5 -4 5 -13 -1 -24
-5 -10 -7 -20 -5 -23 3 -2 7 -27 10 -54 9 -73 10 -83 17 -90 4 -3 4 -12 2 -19
-3 -7 -1 -16 5 -19 6 -4 8 -13 4 -21 -3 -8 0 -15 6 -15 6 0 10 -3 9 -7 -1 -5
4 -28 12 -53 7 -25 13 -51 13 -57 0 -7 4 -13 9 -13 4 0 8 -9 8 -20 0 -10 4
-29 10 -42 8 -21 93 -286 95 -298 1 -6 71 -226 92 -290 8 -25 17 -54 19 -65 8
-30 10 -38 23 -69 6 -16 13 -38 16 -50 2 -11 4 -22 6 -23 1 -2 2 -6 3 -10 1
-5 4 -12 7 -18 4 -5 10 -26 14 -45 4 -19 12 -46 18 -60 13 -31 12 -29 21 -65
4 -16 10 -37 13 -45 3 -8 7 -19 8 -25 2 -5 14 -44 28 -85 25 -75 90 -280 92
-290 11 -58 89 -220 127 -264 10 -10 15 -23 13 -27 -3 -4 4 -10 15 -14 11 -3
20 -12 20 -18 0 -16 136 -144 161 -152 10 -4 19 -10 19 -15 0 -10 181 -100
202 -100 8 0 18 -3 22 -7 3 -4 12 -8 19 -9 7 -2 22 -5 35 -8 55 -14 69 -17 94
-18 15 0 25 -5 22 -9 -3 -5 6 -5 19 0 14 6 27 8 29 5 10 -9 74 -10 92 -1 13 6
16 6 12 -2 -5 -8 0 -8 16 -3 13 5 30 8 38 7 8 0 18 4 22 10 5 6 8 5 8 -3 0 -8
5 -10 13 -5 6 4 17 8 22 9 34 6 410 120 465 141 8 3 20 7 26 8 6 2 78 24 160
51 82 26 154 49 159 50 6 2 111 35 235 74 124 39 245 78 270 85 25 7 140 44
255 81 116 36 216 67 223 67 6 0 12 3 12 7 0 6 72 35 79 31 2 -2 8 4 13 13 5
9 13 14 19 11 5 -4 9 -2 9 3 0 6 11 13 25 16 14 4 25 11 25 16 0 6 5 10 10 10
13 0 28 13 118 98 39 38 72 73 72 76 0 4 11 19 25 34 14 15 25 33 25 40 0 7 7
15 15 18 8 4 15 14 15 24 0 10 6 25 13 32 7 7 14 16 15 21 1 4 9 23 17 43 8
20 15 42 15 50 0 7 5 16 11 19 6 4 8 13 5 20 -2 7 -1 16 4 21 12 13 32 150 32
219 -1 72 -12 179 -19 184 -4 3 -9 21 -11 40 -1 19 -7 41 -14 48 -6 7 -8 13
-5 13 4 0 -1 19 -9 43 -9 23 -17 49 -19 57 -2 8 -10 35 -19 60 -9 25 -19 56
-22 69 -3 13 -9 32 -15 43 -5 10 -7 18 -4 18 3 0 1 9 -5 21 -6 11 -13 28 -15
37 -2 9 -20 68 -39 130 -20 63 -36 120 -36 128 0 8 -5 14 -12 14 -6 0 -9 3 -5
6 3 3 1 18 -5 33 -5 14 -11 34 -13 44 -5 21 -24 84 -36 112 -4 11 -22 67 -39
125 -17 58 -35 114 -40 125 -7 18 -42 128 -46 148 -1 4 -3 9 -4 12 -1 3 -3 8
-4 13 -1 4 -5 13 -10 20 -4 7 -5 16 -2 19 3 3 2 11 -3 17 -5 6 -13 27 -19 46
-39 134 -107 342 -121 375 -10 22 -24 55 -32 73 -8 17 -17 32 -21 32 -5 0 -8
5 -8 11 0 17 -56 93 -113 152 -30 31 -52 59 -50 61 3 2 -4 7 -15 10 -11 4 -32
18 -48 31 -16 14 -41 31 -56 38 -16 6 -28 15 -28 19 0 5 -7 8 -15 8 -8 0 -15
5 -15 11 0 5 -4 7 -10 4 -5 -3 -10 -1 -10 4 0 6 -8 11 -18 11 -10 0 -28 7 -40
16 -12 8 -22 13 -22 10 0 -3 -15 1 -34 9 -18 8 -44 16 -57 19 -13 3 -35 7 -49
11 -61 13 -230 24 -230 15z m-347 -1451 c20 -2 37 -7 37 -11 0 -4 10 -8 21 -8
31 0 135 -55 169 -90 16 -17 34 -30 40 -30 5 0 10 -4 10 -8 0 -5 11 -22 24
-37 14 -16 23 -32 20 -37 -3 -4 0 -8 5 -8 6 0 11 -7 11 -15 0 -8 4 -15 9 -15
8 0 27 -55 36 -105 2 -11 4 -20 6 -20 5 0 5 -151 0 -160 -3 -5 -7 -19 -8 -30
-2 -11 -6 -27 -10 -35 -3 -8 -7 -18 -8 -22 -2 -5 -4 -10 -5 -13 -1 -3 -3 -8
-4 -12 -2 -12 -48 -86 -65 -106 -41 -46 -106 -101 -140 -119 -14 -7 -29 -17
-33 -23 -4 -5 -8 -7 -8 -2 0 4 -13 1 -30 -8 -16 -9 -30 -13 -30 -10 0 3 -9 1
-20 -5 -16 -9 -96 -21 -135 -21 -27 1 -118 15 -135 21 -3 1 -8 2 -12 1 -5 0
-8 4 -8 10 0 5 -4 8 -9 4 -5 -3 -33 8 -61 25 -28 16 -53 30 -56 30 -12 0 -123
124 -118 131 3 5 0 9 -5 9 -6 0 -11 7 -11 15 0 8 -5 15 -10 15 -6 0 -9 3 -8 8
1 4 -5 21 -12 37 -7 17 -13 42 -14 57 0 16 -4 28 -8 28 -9 0 -3 154 7 200 5
19 14 46 22 60 7 14 13 30 13 37 0 7 6 16 14 20 8 4 15 11 15 16 1 9 71 102
71 94 0 -3 12 4 26 17 59 53 88 71 107 68 4 -1 7 3 7 8 0 6 6 10 13 9 6 -1 26
3 42 10 17 7 53 15 80 18 28 3 51 6 52 7 3 2 34 1 106 -5z"/>
</g>
</svg>
